[
  {
    "name":"DP-25",
    "description":"DATECS  DP-25  წარმოადგენს  პროგრამირებად საკონტროლო  სალარო  აპარატს. აპარატით შესაძლებელია დამოუკიდებლად(კომიუტერთან კავშირის გარეშე), როგორც მხოლოდ სალაროს წარმოება, ისე საქონლის აღრიცხვა საცალო და საბითუმო ვაჭრობის განხსვავებულ ობიექტებზე. საქონლის აღრიცხვა მოიცავს გაყუდული რაოდენობის აღრიცხვასა და მარაგების მართვას. სალარო აპარატი აღჭურვილია გარე მოწყობილობებთან (შტრიხკოდ სკანერი, ფულის უჯრა, სასწორი) საკომუნიკაციო პორტებით და ახდენს გაყიდვის პროცესში მათ გამოყენებას. \r\n სსა „DATECS DP-25“  მუშაობს SAM მოდულის აქტივაციით, რომელიც არის ISO/IEC 7810-ის სტანდარტის შესაბამისად შექმნილი. იგი აღნიშნული სტანდარტის მიხედვით მუშაობს გარე მოწყობილობასთან და გამოიყენება დაცულობის და უსაფრთხოების უზრუნველყოფისთვის. \n ტექნიკური მომსახურების ღირებულება: 6 თვე - 30 ლარი; 12 თვე - 60 ლარი; \n აპარატის ღირებულება: 6 თვის მომსახურებით: 420ლ; 12 თვის მომსახურებით 450ლ;",
    "imgSrc":"img/dp25.png",
    "link1":"files/axali_ssa_gakidva_registracia.pdf"
  },
  {
    "name":"DP-05",
    "description":"<blockquote><p class='indent-20'>DATECS  DP-05  წარმოადგენს  პროგრამირებად საკონტროლო  სალარო  აპარატს. იგი შექმნილია მობილური ამოცანების მქონე მომხმარებლის მოთხოვნების დასაკმაყოფილებლად.</p><p class='indent-20'>სსა „DATECS DP-05“  მუშაობს აგრეთვე SAM მოდულის აქტივაციით, რომელიც არის ISO/IEC 7810-ის სტანდარტის შესაბამისად შექმნილი. იგი აღნიშნული სტანდარტის მიხედვით მუშაობს გარე მოწყობილობასთან და გამოიყენება დაცულობის და უსაფრთხოების უზრუნველყოფისთვის. SAM მოდულში შესაბამისი პროგრამული უზრუნველყოფის ჩაწერას ახორციელებს შემოსავლების სამსახური.</p><p class='indent-20'>ტექნიკური მომსახურების ღირებულება: 6 თვე - 30 ლარი; 12 თვე - 60 ლარი;</p><p class='indent-20'>აპარატის ღირებულება: 6 თვის მომსახურებით: 420ლ; 12 თვის მომსახურებით 450ლ;</p><p class='indent-20'></p><ul><li>აპარატის აქსესუარი (ჩანთა) - 30 ლარი.</li></ul><p></p></blockquote>",
    "imgSrc":"img/dp25.png",
    "link1":"files/axali_ssa_gakidva_registracia.pdf"
  }
]
